dump.vcd
$date
	Fri Jun 23 15:58:46 2023
$end
$version
	ModelSim Version 6.6d
$end
$timescale
	1ns
$end
$scope module tb $end
$scope module u0 $end
$var wire 1 ! sum $end
$var wire 1 " cout $end
$var wire 1 # a $end
$var wire 1 $ b $end
$upscope $end
$upscope $end
$enddefinitions $end
#0
$dumpvars
x!
x"
x#
x$
$end
#11
0#
0$
0"
0!
#22
1$
1!
#33
1#
0$
#44
1$
1"
0!
#55
0#
0$
0"
#66
1$
1!
#77
1#
0$
#88
1$
1"
0!
